<svg xmlns="http://www.w3.org/2000/svg" width="25" height="25" viewBox="0 0 40 40" class="svg_dp_JX" style="transform:rotate(-90deg);margin-top: -2px;margin-left: 1px;" data-v-25d8c894="">
    <g fill="#fff">
        <g fill="#fff" transform="translate(.000152 .692717)">
            <path d="m23.1982915 10.0101107c-.4225837-2.07192044-1.4355518-4.04598594-3.0389736-5.64940774-3.1727017-3.17270171-7.9121902-4.13968563-12.075699-2.4655562-.46773683.18829973-.92363134.40894077-1.35812659.65769864-.85874099.4889976-1.65446148 1.09731864-2.3650004 1.80785756-.70548343.70541418-1.31034181 1.49607918-1.8002397 2.35232706-.25132025.43532628-.47542395.89793837-.6671171 1.37585543-1.6714978 4.16108495-.70368284 8.89801105 2.46818784 12.06981245 1.60335254 1.6034218 3.57741804 2.6164592 5.64857665 3.0381426.05194.3842173.1226476.7650412.2129539 1.1433721-2.42899043-.4064477-4.75818688-1.5446258-6.62830316-3.4146728-3.47942461-3.4794246-4.54183958-8.6756387-2.70752726-13.23957008.2104608-.5256326.45748734-1.03512917.73269998-1.51311549.53581283-.93803603 1.20036756-1.80536444 1.97399624-2.57892387.77951521-.77951522 1.65279941-1.44663232 2.59339781-1.98161411.47625499-.2734813.97799519-.5162834 1.49344755-.72342003 4.56656304-1.83673619 9.76527024-.77522151 13.24552584 2.70510339 1.8701163 1.87004703 3.0091947 4.20014377 3.4155731 6.62913419-.3782616-.0903063-.7599858-.1619142-1.1433721-.2130231"></path>
            <path d="m23.1982915 10.0101107c-2.0021131-.27265029-4.0604599-.0255545-5.959524.738725-.4865045.1950173-.9635213.4250768-1.4244713.6900399-.8885891.5052029-1.723507 1.1374163-2.4808612 1.8947705-.7531989.7531297-1.3819497 1.5829228-1.8863215 2.4655562-.2700187.4678061-.5026405.9508479-.7002895 1.4449702-.76254811 1.8973329-1.00874361 3.9531173-.7369244 5.952668 3.5543567.7275752 7.3975689-.2853929 10.1494183-3.0372423s3.7648175-6.5950616 3.0389736-10.1494875"></path>
            <path d="m29.8990267 29.8992655c4.5750812-4.5750812 4.5741809-11.9914178 0-16.5656679-1.5888786-1.5888786-3.5203533-2.6257391-5.55737-3.110443.6313131 3.7767291-.5069342 7.7945981-3.4155731 10.7031678-2.9077386 2.9078078-6.9264387 4.0468862-10.703237 3.4139109.4856042 2.0361165 1.5224647 3.9692533 3.1114126 5.5582011 4.5741808 4.5741809 11.9905866 4.5750812 16.5647675.0008311"></path>
        </g>
    </g>
</svg>