<svg
xmlns="http://www.w3.org/2000/svg"
width="25"
height="25"
viewBox="0 0 40 40"
class="svg_dp_JX"
style="cursor: pointer"
>
<g fill="#fff">
  <path
    d="M15.2 6.667c-2.651 0-4.8 2.238-4.8 5V32.23l8.396-6.662c.637-.759 1.77-.759 2.408 0l8.396 6.662V11.667c0-2.762-2.149-5-4.8-5h-9.6zm4.8 22.53l-7.192 5.229c-1.164 1.385-3.185 1.526-4.515.314-.695-.633-1.093-1.548-1.093-2.51V11.668c0-4.603 3.582-8.334 8-8.334h9.6c4.418 0 8 3.731 8 8.334V32.23c0 1.84-1.433 3.333-3.2 3.333-.923 0-1.8-.415-2.408-1.138L20 29.198z"
    transform="translate(-1148 -464) translate(1068 432) translate(74 32) translate(6)"
  ></path>
</g>
</svg>